…
## Benefits

Data downloaded using tidywpp is in
[tidy](https://vita.had.co.nz/papers/tidy-data.pdf) form, and hence does
not require any major manipulations for use in popular modelling and
visualisation functions in R.

``` r
library(tidywpp)
#> Suggested citation for WPP2022 data: United Nations, Department of Economic and Social Affairs, Population Division (2022). World Population Prospects 2022, Online Edition. Rev. 1
d <- get_wpp(indicator = "pop", pop_age = "single", pop_sex = "both", tidy_pop_sex = TRUE, drop_id_cols = TRUE)
d
#> # A tibble: 8,693,070 × 6
#>    Location Variant  Time AgeGrp Sex       Pop
#>    <chr>    <chr>   <dbl> <fct>  <chr>   <dbl>
#>  1 World    Medium   1950 0      Male   41782.
#>  2 World    Medium   1950 0      Female 39929.
#>  3 World    Medium   1950 1      Male   37134.
#>  4 World    Medium   1950 1      Female 35539.
#>  5 World    Medium   1950 2      Male   34054.
#>  6 World    Medium   1950 2      Female 32655.
#>  7 World    Medium   1950 3      Male   31959.
#>  8 World    Medium   1950 3      Female 30610.
#>  9 World    Medium   1950 4      Male   29718.
#> 10 World    Medium   1950 4      Female 28497.
#> # … with 8,693,060 more rows
```
…
