Find available indicator code names or file groups for UN DESA World Population Prospects data — find_indicator • tidywpp
…
find_indicator("sex ratio")
#> # A tibble: 2 × 3
#>   name        details                            file                  
#>   <chr>       <chr>                              <chr>                 
#> 1 PopSexRatio Population Sex Ratio, as of 1 July Demographic_Indicators
#> 2 SRB         Sex Ratio at Birth                 Demographic_Indicators

# show variant information
find_indicator("Deaths", simple = FALSE)
#> # A tibble: 62 × 10
#>    name        details unit  var_id variant   wpp topic file  file0 file_details
#>    <chr>       <chr>   <chr>  <dbl> <chr>   <dbl> <chr> <chr> <chr> <chr>       
#>  1 NatChange   Natura… thou…     10 Moment…  2022 Popu… Demo… Demo… Demographic…
#>  2 Deaths      Total … thou…     10 Moment…  2022 Mort… Demo… Demo… Demographic…
#>  3 DeathsMale  Male D… thou…     10 Moment…  2022 Mort… Demo… Demo… Demographic…
#>  4 DeathsFema… Female… thou…     10 Moment…  2022 Mort… Demo… Demo… Demographic…
#>  5 InfantDeat… Infant… thou…     10 Moment…  2022 Mort… Demo… Demo… Demographic…
#>  6 Under5Deat… Deaths… thou…     10 Moment…  2022 Mort… Demo… Demo… Demographic…
#>  7 NatChange   Natura… thou…     16 Instan…  2022 Popu… Demo… Demo… Demographic…
#>  8 Deaths      Total … thou…     16 Instan…  2022 Mort… Demo… Demo… Demographic…
#>  9 DeathsMale  Male D… thou…     16 Instan…  2022 Mort… Demo… Demo… Demographic…
#> 10 DeathsFema… Female… thou…     16 Instan…  2022 Mort… Demo… Demo… Demographic…
#> # … with 52 more rows
…
