Download UN DESA WPP data — get_wpp • tidywpp
…
203Upper 80 PI

204Lower 80 PI

206Upper 95 PI

207Lower 95 PI

    Examples

# \donttest{
# single indicator from medium variant of latest WPP
get_wpp(indicator = "TFR")

#> # A tibble: 14,940 × 7
#>    LocID Location    VarID Variant Time      MidPeriod   TFR
#>    <dbl> <chr>       <dbl> <chr>   <chr>         <dbl> <dbl>
#>  1     4 Afghanistan     2 Medium  1950-1955      1953  7.45
#>  2     4 Afghanistan     2 Medium  1955-1960      1958  7.45
#>  3     4 Afghanistan     2 Medium  1960-1965      1963  7.45
#>  4     4 Afghanistan     2 Medium  1965-1970      1968  7.45
#>  5     4 Afghanistan     2 Medium  1970-1975      1973  7.45
#>  6     4 Afghanistan     2 Medium  1975-1980      1978  7.45
#>  7     4 Afghanistan     2 Medium  1980-1985      1983  7.45
#>  8     4 Afghanistan     2 Medium  1985-1990      1988  7.47
#>  9     4 Afghanistan     2 Medium  1990-1995      1993  7.48
#> 10     4 Afghanistan     2 Medium  1995-2000      1998  7.65
#> # … with 14,930 more rows

# single indicator from multiple variants of latest WPP
get_wpp(indicator = "TFR", variant_id = c(2, 3, 4))

#> # A tibble: 24,060 × 7
#>    LocID Location    VarID Variant Time      MidPeriod   TFR
#>    <dbl> <chr>       <dbl> <chr>   <chr>         <dbl> <dbl>
#>  1     4 Afghanistan     2 Medium  1950-1955      1953  7.45
#>  2     4 Afghanistan     2 Medium  1955-1960      1958  7.45
#>  3     4 Afghanistan     2 Medium  1960-1965      1963  7.45
#>  4     4 Afghanistan     2 Medium  1965-1970      1968  7.45
#>  5     4 Afghanistan     2 Medium  1970-1975      1973  7.45
#>  6     4 Afghanistan     2 Medium  1975-1980      1978  7.45
#>  7     4 Afghanistan     2 Medium  1980-1985      1983  7.45
#>  8     4 Afghanistan     2 Medium  1985-1990      1988  7.47
#>  9     4 Afghanistan     2 Medium  1990-1995      1993  7.48
#> 10     4 Afghanistan     2 Medium  1995-2000      1998  7.65
#> # … with 24,050 more rows

# multiple population indicators from single variant of latest WPP
get_wpp(indicator = c("PopTotal", "PopMale", "PopFemale"))

#> Downloading from PopulationByAgeSex
#> Also available in: TotalPopulationBySex
#> Also available in: PopulationBySingleAgeSex
#> Use indicator_file_group to get alternative measures
#> # A tibble: 1,404,753 × 12
#>    LocID Location    VarID Variant  Time MidPeriod AgeGrp AgeGrpStart AgeGrpSpan
#>    <dbl> <chr>       <dbl> <chr>   <dbl>     <dbl> <fct>        <dbl>      <dbl>
#>  1     4 Afghanistan     2 Medium   1950     1950. 0-4              0          5
#>  2     4 Afghanistan     2 Medium   1950     1950. 5-9              5          5
#>  3     4 Afghanistan     2 Medium   1950     1950. 10-14           10          5
#>  4     4 Afghanistan     2 Medium   1950     1950. 15-19           15          5
#>  5     4 Afghanistan     2 Medium   1950     1950. 20-24           20          5
#>  6     4 Afghanistan     2 Medium   1950     1950. 25-29           25          5
#>  7     4 Afghanistan     2 Medium   1950     1950. 30-34           30          5
#>  8     4 Afghanistan     2 Medium   1950     1950. 35-39           35          5
#>  9     4 Afghanistan     2 Medium   1950     1950. 40-44           40          5
#> 10     4 Afghanistan     2 Medium   1950     1950. 45-49           45          5
#> # … with 1,404,743 more rows, and 3 more variables: PopFemale <dbl>,
#> #   PopMale <dbl>, PopTotal <dbl>

# there are multiple population indicators in the WPP with different levels of granularity
# use indicator_file_group to select the desired version of population indicator(s)
get_wpp(indicator = c("PopTotal", "PopMale", "PopFemale"), indicator_file_group =  "TotalPopulationBySex")

#> # A tibble: 72,027 × 9
#>    LocID Location    VarID Variant  Time MidPeriod PopFemale PopMale PopTotal
#>    <dbl> <chr>       <dbl> <chr>   <dbl>     <dbl>     <dbl>   <dbl>    <dbl>
#>  1     4 Afghanistan     2 Medium   1950     1950.     3653.   4099.    7752.
#>  2     4 Afghanistan     2 Medium   1951     1952.     3705.   4135.    7840.
#>  3     4 Afghanistan     2 Medium   1952     1952.     3762.   4174.    7936.
#>  4     4 Afghanistan     2 Medium   1953     1954.     3821.   4218.    8040.
#>  5     4 Afghanistan     2 Medium   1954     1954.     3885.   4266.    8151.
#>  6     4 Afghanistan     2 Medium   1955     1956.     3952.   4319.    8271.
#>  7     4 Afghanistan     2 Medium   1956     1956.     4023.   4376.    8399.
#>  8     4 Afghanistan     2 Medium   1957     1958.     4098    4437.    8535.
#>  9     4 Afghanistan     2 Medium   1958     1958.     4177.   4503.    8680.
#> 10     4 Afghanistan     2 Medium   1959     1960.     4260.   4574.    8834.
#> # … with 72,017 more rows

# tidy sex into a single column and drop id columns
get_wpp(indicator = c("PopMale", "PopFemale"), indicator_file_group =  "TotalPopulationBySex",
        tidy_pop_sex = TRUE, drop_id_cols = TRUE)

#> # A tibble: 144,054 × 5
#>    Location    Variant  Time Sex      Pop
#>    <chr>       <chr>   <dbl> <chr>  <dbl>
#>  1 Afghanistan Medium   1950 Female 3653.
#>  2 Afghanistan Medium   1950 Male   4099.
#>  3 Afghanistan Medium   1951 Female 3705.
#>  4 Afghanistan Medium   1951 Male   4135.
#>  5 Afghanistan Medium   1952 Female 3762.
#>  6 Afghanistan Medium   1952 Male   4174.
#>  7 Afghanistan Medium   1953 Female 3821.
#>  8 Afghanistan Medium   1953 Male   4218.
#>  9 Afghanistan Medium   1954 Female 3885.
#> 10 Afghanistan Medium   1954 Male   4266.
#> # … with 144,044 more rows

# clean column names
get_wpp(indicator = c("SRB", "NetMigrations", "GrowthRate"), clean_names = TRUE, drop_id_cols = TRUE)

#> # A tibble: 14,940 × 6
#>    location    variant time      growth_rate net_migrations   srb
#>    <chr>       <chr>   <chr>           <dbl>          <dbl> <dbl>
#>  1 Afghanistan Medium  1950-1955       1.30            -20   1.06
#>  2 Afghanistan Medium  1955-1960       1.68            -20   1.06
#>  3 Afghanistan Medium  1960-1965       2.03            -20   1.06
#>  4 Afghanistan Medium  1965-1970       2.31            -20   1.06
#>  5 Afghanistan Medium  1970-1975       2.54            -20   1.06
#>  6 Afghanistan Medium  1975-1980       1.02          -1154.  1.06
#>  7 Afghanistan Medium  1980-1985      -2.24          -3345.  1.06
#>  8 Afghanistan Medium  1985-1990       0.779         -1525.  1.06
#>  9 Afghanistan Medium  1990-1995       7.56           3076.  1.06
#> 10 Afghanistan Medium  1995-2000       2.75           -868.  1.06
#> # … with 14,930 more rows
…
