Overview of the tidywpp package • tidywpp
…
Installation

Install the developmental version with:

library(devtools)
install_github("guyabel/tidywpp", ref = "main")

Examples

Download data based on a indicator name. For example, a single indicator from medium variant of latest WPP

library(tidywpp)

get_wpp(indicator = "TFR")
#> # A tibble: 43,472 × 6
#>    LocID Location VarID Variant  Time   TFR
#>    <dbl> <chr>    <dbl> <chr>   <dbl> <dbl>
#>  1   900 World        2 Medium   1950  4.86
#>  2   900 World        2 Medium   1951  4.83
#>  3   900 World        2 Medium   1952  5.01
#>  4   900 World        2 Medium   1953  4.94
#>  5   900 World        2 Medium   1954  5.01
#>  6   900 World        2 Medium   1955  5.01
#>  7   900 World        2 Medium   1956  4.94
#>  8   900 World        2 Medium   1957  5.08
#>  9   900 World        2 Medium   1958  4.93
#> 10   900 World        2 Medium   1959  4.74
#> # … with 43,462 more rows

A single indicator from multiple variants of WPP2008

get_wpp(indicator = "TFR", variant_id = c(2, 3, 4), wpp_version = 2008)
#> # A tibble: 9,994 × 7
#>    LocID Location    VarID Variant Time      MidPeriod   TFR
#>    <dbl> <chr>       <dbl> <chr>   <chr>         <dbl> <dbl>
#>  1     4 Afghanistan     2 Medium  1950-1955      1953   7.7
#>  2     4 Afghanistan     2 Medium  1955-1960      1958   7.7
#>  3     4 Afghanistan     2 Medium  1960-1965      1963   7.7
#>  4     4 Afghanistan     2 Medium  1965-1970      1968   7.7
#>  5     4 Afghanistan     2 Medium  1970-1975      1973   7.7
#>  6     4 Afghanistan     2 Medium  1975-1980      1978   7.7
#>  7     4 Afghanistan     2 Medium  1980-1985      1983   7.8
#>  8     4 Afghanistan     2 Medium  1985-1990      1988   7.9
#>  9     4 Afghanistan     2 Medium  1990-1995      1993   8  
#> 10     4 Afghanistan     2 Medium  1995-2000      1998   8  
#> # … with 9,984 more rows

Multiple population indicators from medium variant of latest WPP

get_wpp(indicator = c("PopGrowthRate", "IMR"))
#> # A tibble: 43,472 × 7
#>    LocID Location VarID Variant  Time PopGrowthRate   IMR
#>    <dbl> <chr>    <dbl> <chr>   <dbl>         <dbl> <dbl>
#>  1   900 World        2 Medium   1950          1.73  143.
#>  2   900 World        2 Medium   1951          1.74  141.
#>  3   900 World        2 Medium   1952          1.93  137.
#>  4   900 World        2 Medium   1953          1.90  134.
#>  5   900 World        2 Medium   1954          1.98  132.
#>  6   900 World        2 Medium   1955          2.00  129.
#>  7   900 World        2 Medium   1956          1.96  126.
#>  8   900 World        2 Medium   1957          2.05  124.
#>  9   900 World        2 Medium   1958          1.98  121.
#> 10   900 World        2 Medium   1959          1.70  130.
#> # … with 43,462 more rows

Some indicators appear in multiple file groups, for example Births represents total number of births in the country in the Demographic_Indicators file (chosen by default)

get_wpp(indicator = "Births")
#> Indicator(s) appears in more than one file.
#> 
#> Only downloading indicator(s) from file: Demographic_Indicators 
#> 
#> Need multiple get_wpp() calls to get indicators in different files. See ?wpp_indicators and ?find_indicators for more information on files.
#> # A tibble: 43,472 × 6
#>    LocID Location VarID Variant  Time  Births
#>    <dbl> <chr>    <dbl> <chr>   <dbl>   <dbl>
#>  1   900 World        2 Medium   1950  92083.
#>  2   900 World        2 Medium   1951  92837.
#>  3   900 World        2 Medium   1952  97607.
#>  4   900 World        2 Medium   1953  97556.
#>  5   900 World        2 Medium   1954 100348.
#>  6   900 World        2 Medium   1955 101807.
#>  7   900 World        2 Medium   1956 101827.
#>  8   900 World        2 Medium   1957 105978.
#>  9   900 World        2 Medium   1958 104557.
#> 10   900 World        2 Medium   1959 101922.
#> # … with 43,462 more rows

Specify indicator_file to get number of births by mothers 5-year age group

get_wpp(indicator = c("Births", "ASFR"), indicator_file = "Fertility_by_Age5", drop_id_cols = TRUE)
#> # A tibble: 387,315 × 6
#>    Location Variant  Time AgeGrp    ASFR  Births
#>    <chr>    <chr>   <dbl> <fct>    <dbl>   <dbl>
#>  1 World    Medium   1950 10-14    4.54    571. 
#>  2 World    Medium   1950 15-19   91.1   10629. 
#>  3 World    Medium   1950 20-24  229.    24991. 
#>  4 World    Medium   1950 25-29  241.    23498. 
#>  5 World    Medium   1950 30-34  196.    16100. 
#>  6 World    Medium   1950 35-39  132.    10661. 
#>  7 World    Medium   1950 40-44   64.6    4703. 
#>  8 World    Medium   1950 45-49   14.0     888. 
#>  9 World    Medium   1950 50-54    0.755    40.4
#> 10 World    Medium   1951 10-14    4.64    587. 
#> # … with 387,305 more rows

Population data

The PopTotal, PopMale and PopFemale indicators are in many WPP files with a wide range granularity. Set indicator = "pop" and use the pop_sex, pop_age, pop_freq and pop_date to get desired data from the appropriate indicator_file.

When using indicator = "pop" in get_wpp(), output defaults to annual total population (summed over age and sex)

get_wpp(indicator = "pop")
#> # A tibble: 43,186 × 7
#>    LocID Location VarID Variant  Time MidPeriod PopTotal
#>    <dbl> <chr>    <dbl> <chr>   <dbl>     <dbl>    <dbl>
#>  1   900 World        2 Medium   1950     1950. 2499322.
#>  2   900 World        2 Medium   1951     1952. 2543130.
#>  3   900 World        2 Medium   1952     1952. 2590271.
#>  4   900 World        2 Medium   1953     1954. 2640279.
#>  5   900 World        2 Medium   1954     1954. 2691979.
#>  6   900 World        2 Medium   1955     1956. 2746072.
#>  7   900 World        2 Medium   1956     1956. 2801003.
#>  8   900 World        2 Medium   1957     1958. 2857867.
#>  9   900 World        2 Medium   1958     1958. 2916108.
#> 10   900 World        2 Medium   1959     1960. 2970292.
#> # … with 43,176 more rows

Use pop_sex to get specific sexes (or both or all)

get_wpp(indicator = "pop", pop_sex = "male")
#> # A tibble: 43,186 × 7
#>    LocID Location VarID Variant  Time MidPeriod  PopMale
#>    <dbl> <chr>    <dbl> <chr>   <dbl>     <dbl>    <dbl>
#>  1   900 World        2 Medium   1950     1950. 1245363.
#>  2   900 World        2 Medium   1951     1952. 1267473.
#>  3   900 World        2 Medium   1952     1952. 1291400.
#>  4   900 World        2 Medium   1953     1954. 1316659.
#>  5   900 World        2 Medium   1954     1954. 1342923.
#>  6   900 World        2 Medium   1955     1956. 1370392.
#>  7   900 World        2 Medium   1956     1956. 1398205.
#>  8   900 World        2 Medium   1957     1958. 1426956.
#>  9   900 World        2 Medium   1958     1958. 1456539.
#> 10   900 World        2 Medium   1959     1960. 1483989.
#> # … with 43,176 more rows

Use pop_age to specify age groups

get_wpp(indicator = "pop", pop_sex = "both", pop_age = "five")
#> # A tibble: 903,735 × 11
#>    LocID Location VarID Variant  Time MidPeriod AgeGrp AgeGrpStart AgeGrpSpan
#>    <dbl> <chr>    <dbl> <chr>   <dbl>     <dbl> <fct>        <dbl>      <dbl>
#>  1   900 World        2 Medium   1950      1950 0-4              0          5
#>  2   900 World        2 Medium   1950      1950 5-9              5          5
#>  3   900 World        2 Medium   1950      1950 10-14           10          5
#>  4   900 World        2 Medium   1950      1950 15-19           15          5
#>  5   900 World        2 Medium   1950      1950 20-24           20          5
#>  6   900 World        2 Medium   1950      1950 25-29           25          5
#>  7   900 World        2 Medium   1950      1950 30-34           30          5
#>  8   900 World        2 Medium   1950      1950 35-39           35          5
#>  9   900 World        2 Medium   1950      1950 40-44           40          5
#> 10   900 World        2 Medium   1950      1950 45-49           45          5
#> # … with 903,725 more rows, and 2 more variables: PopMale <dbl>,
#> #   PopFemale <dbl>

Full tidy

Tidy sex into a single column and drop id columns

get_wpp(indicator = "pop", pop_sex = "both", pop_age = "five", tidy_pop_sex = TRUE, drop_id_cols = TRUE)
#> # A tibble: 1,807,470 × 6
#>    Location Variant  Time AgeGrp Sex        Pop
#>    <chr>    <chr>   <dbl> <fct>  <chr>    <dbl>
#>  1 World    Medium   1950 0-4    Male   174647.
#>  2 World    Medium   1950 0-4    Female 167229.
#>  3 World    Medium   1950 5-9    Male   136914.
#>  4 World    Medium   1950 5-9    Female 130817.
#>  5 World    Medium   1950 10-14  Male   132113.
#>  6 World    Medium   1950 10-14  Female 125968.
#>  7 World    Medium   1950 15-19  Male   120513.
#>  8 World    Medium   1950 15-19  Female 116661.
#>  9 World    Medium   1950 20-24  Male   111020.
#> 10 World    Medium   1950 20-24  Female 109096.
#> # … with 1,807,460 more rows

Clean column names with clean_names = TRUE

get_wpp(indicator = c("SRB", "NetMigrations", "PopGrowthRate"), clean_names = TRUE, drop_id_cols = TRUE)
#> # A tibble: 43,472 × 6
#>    location variant  time pop_growth_rate   srb net_migrations
#>    <chr>    <chr>   <dbl>           <dbl> <dbl>          <dbl>
#>  1 World    Medium   1950            1.73  105.              0
#>  2 World    Medium   1951            1.74  105.              0
#>  3 World    Medium   1952            1.93  105.              0
#>  4 World    Medium   1953            1.90  105.              0
#>  5 World    Medium   1954            1.98  105.              0
#>  6 World    Medium   1955            2.00  105.              0
#>  7 World    Medium   1956            1.96  105.              0
#>  8 World    Medium   1957            2.05  105.              0
#>  9 World    Medium   1958            1.98  105.              0
#> 10 World    Medium   1959            1.70  105.              0
#> # … with 43,462 more rows
…
